{
  "EDITOR_STATE": {
    "allProjectFiles": {
      "12581101-7bd0-4299-9ede-89ace82ef435": {
        "id": "12581101-7bd0-4299-9ede-89ace82ef435",
        "parent": null,
        "name": "indupubsub340sub.py",
        "type": "PYTHON_LAMBDA",
        "isDirectory": false,
        "children": [],
        "isRemovable": true,
        "filePath": "indupubsub340sub.py",
        "cursor": {
          "lineNumber": 1,
          "column": 1
        },
        "config": {
          "runtime": "python37",
          "handler": "handler",
          "timeout": 60,
          "memory": 128,
          "triggerType": 0,
          "name": "indupubsub340sub"
        },
        "triggers": [
          {
            "resourceName": "http-trigger",
            "config": {}
          }
        ],
        "lastUpdated": 1632699756513,
        "testCases": {
          "1d5d994b-0c72-4d99-99e0-ded33d4927d1": {
            "id": "1d5d994b-0c72-4d99-99e0-ded33d4927d1",
            "name": "Test event",
            "functionId": "12581101-7bd0-4299-9ede-89ace82ef435",
            "event": "{\"key1\": \"value1\", \"key2\": \"value2\", \"key3\": \"value3\"}",
            "eventTemplate": "hello-world"
          }
        }
      },
      "29b58a83-b423-4af5-8b68-42d62b90a65d": {
        "id": "29b58a83-b423-4af5-8b68-42d62b90a65d",
        "parent": null,
        "name": "index.js",
        "type": "JS_FILE",
        "isDirectory": false,
        "children": [],
        "isRemovable": false,
        "filePath": "index.js",
        "lastUpdated": 1632699749025
      },
      "5ac4fbe1-70d1-4ec8-a4aa-ba97d38c0f9c": {
        "id": "5ac4fbe1-70d1-4ec8-a4aa-ba97d38c0f9c",
        "parent": null,
        "name": "main.py",
        "type": "PYTHON_FILE",
        "isDirectory": false,
        "children": [],
        "isRemovable": false,
        "filePath": "main.py",
        "lastUpdated": 1632699750739
      },
      "9d382578-596d-4ec6-94e5-2668abaa31ae": {
        "id": "9d382578-596d-4ec6-94e5-2668abaa31ae",
        "parent": null,
        "name": "requirements.txt",
        "type": "TEXT_FILE",
        "isDirectory": false,
        "children": [],
        "isRemovable": true,
        "filePath": "requirements.txt",
        "lastUpdated": 1632699752469
      }
    },
    "openFiles": [
      "12581101-7bd0-4299-9ede-89ace82ef435",
      "29b58a83-b423-4af5-8b68-42d62b90a65d",
      "5ac4fbe1-70d1-4ec8-a4aa-ba97d38c0f9c",
      "9d382578-596d-4ec6-94e5-2668abaa31ae"
    ],
    "currentFileId": "12581101-7bd0-4299-9ede-89ace82ef435",
    "resources": {
      "http-trigger": {
        "name": "http-trigger",
        "type": "http-trigger",
        "config": {}
      }
    },
    "customTemplate": {
      "syntax": "JSON",
      "overrideDefault": false,
      "dialect": "CloudFormation",
      "definitions": null
    },
    "envVariables": [],
    "packageJSON": {
      "dependencies": {}
    }
  },
  "PROJECT_META": {
    "sigmaVersion": "1.9.4",
    "projectName": "indupubsub340sub",
    "projectDescription": "",
    "projectVersion": "1.0.0",
    "projectRegion": "us-east1",
    "platform": "GCP",
    "language": "python",
    "platformRegions": {},
    "lastSave": 1632700467866
  },
  "VCS_STATE": {
    "provider": "GitLab",
    "repo": {
      "name": "indupubsub340sub",
      "url": "https://gitlab.com/indunilSigma/indupubsub340sub"
    }
  }
}